{
	"name" : "BasicIMUser",
	"description" : [
        "Wants a simple no-nonsense interface"
	],
	"wants" : [
		{
			"text" : "To find channels of interest in a list of searchable public channels",
			"subwants" : [
                "to see stats about channels such as number of users, mean time between messages.."
			]
		},
		{
            "text" : "To have a method of reclaiming my account if I lose my password",
            "subwants" : ["email password reset"]
		}
	]
}
