{
	"name" : "Organization",
	"description" : [
		"An organization such as an NGO that needs a digital communication platform. ",
		"Needs strong privacy and security features so that only members of the organization has ",
		"access."
	],
	"wants" : [
		{
			"text" : ["To have the option to self host, so that we have full control over our communications ",
                "infrastructure."
			],
			"subwants" : [
                "That there are great guidelines and ready-made solutions available to help us self-host",
                "That it is easy to setup, maintain and secure a server without too much technical knowledge",
                "That there is a \"Plug and play\" solution available"
			]
		},
		{
			"text" : ["To have great support for all sorts of informal communication between members",
                    ""
                ],
			"subwants" : [
                "To have no need for: Skype, Jitsi-meet, SMS, or email (for communication within the organization)",
                "To have all organization members available in a contact list",
                "To see whether an organization member is online,available,busy,offline, etc",
                "To easily do video calls, audio calls, screen sharing with 1 or more organization members",
                "To have a web-client available so that members can easily start using the communications platform"
                
			]
		},
		{
            "text" : "To have administrative tools available to help with GDPR compliance",
            "subwants" : []
		}
	]
}
