{
	"name" : "DataHoarder",
	"description" : [
		"Will save and hoard any data that can be logged passively when participating in public servers.",
		" Wants to save this data to perform statistical analysis on it, perhaps by utilizing data hoarded from elsewhere"
	],
	"wants" : [
		{
			"text" : "To record when all participants in a channel are active/online/offline",
			"subwants" : [
				"To figure out which (public) channels a given user are participating in"
			]
		},
		{
            "text" : "Be able to get hold of private keys",
            "subwants" : []
		},
		{
            "text" : ["To get access to the complete DAG of a server, so that I can analyze metadata from ",
                "non-public channels on that server"
            ],
            "subwants" : []
		
		}
	]
}
